<?xml version="1.0" encoding="UTF-8"?>
<!DOCTYPE svg PUBLIC "-//W3C//DTD SVG 1.1//EN" "http://www.w3.org/Graphics/SVG/1.1/DTD/svg11.dtd">
<!-- Creator: CorelDRAW X6 -->
<svg xmlns="http://www.w3.org/2000/svg" xml:space="preserve" width="64px" height="64px" version="1.1" style="shape-rendering:geometricPrecision; text-rendering:geometricPrecision; image-rendering:optimizeQuality; fill-rule:evenodd; clip-rule:evenodd"
viewBox="0 0 1343 1343"
 xmlns:xlink="http://www.w3.org/1999/xlink">
 <defs>
  <style type="text/css">
   <![CDATA[
    .fil0 {fill:#00B8E3}
    .fil1 {fill:white;fill-rule:nonzero}
   ]]>
  </style>
 </defs>
 <g id="Слой_x0020_1">
  <metadata id="CorelCorpID_0Corel-Layer"/>
  <rect class="fil0" transform="matrix(2.10739E-014 0.79159 -0.79159 2.10739E-014 1342.8 0.00213448)" width="1696" height="1696" rx="228" ry="228"/>
  <g id="_68906272">
   <polygon class="fil1" points="562,295 666,142 852,142 750,295 "/>
   <polygon class="fil1" points="462,725 458,730 661,728 660,552 851,552 850,729 1003,728 939,824 849,824 849,940 663,1237 663,825 264,824 252,748 508,371 698,371 "/>
  </g>
 </g>
</svg>
